C:\Users\Alex\Documents\NetBeansProjects\BuilderDemo\src\main\java\com\alexander\builderdemo\enums\MeatType.java
C:\Users\Alex\Documents\NetBeansProjects\BuilderDemo\src\main\java\com\alexander\builderdemo\SandwhichBuilder.java
C:\Users\Alex\Documents\NetBeansProjects\BuilderDemo\src\main\java\com\alexander\builderdemo\Sandwhich.java
C:\Users\Alex\Documents\NetBeansProjects\BuilderDemo\src\main\java\com\alexander\builderdemo\enums\CheeseType.java
C:\Users\Alex\Documents\NetBeansProjects\BuilderDemo\src\main\java\com\alexander\builderdemo\Main.java
